<svg width="649" height="435" viewBox="0 0 649 435" fill="none" xmlns="http://www.w3.org/2000/svg">
<g clip-path="url(#clip0_177_231)">
<path opacity="0.3" d="M84 200.339L540.312 30.8672L440.802 127.365" fill="url(#paint0_linear_177_231)"/>
<path d="M101.78 178.012L569 32.5156L462.916 126.616" fill="url(#paint1_linear_177_231)"/>
<path d="M286.905 45.851V53.0434H263.597V12.8857H271.366V45.851H286.905Z" fill="white"/>
<path d="M336.66 32.9648C336.66 44.8023 328.144 53.7928 316.191 53.7928C304.237 53.7928 295.721 44.6524 295.721 32.9648C295.721 21.2771 304.237 12.1367 316.191 12.1367C328.144 12.1367 336.66 21.2771 336.66 32.9648ZM328.891 32.9648C328.891 26.2219 324.558 19.6288 316.34 19.6288C308.122 19.6288 303.64 26.3717 303.64 32.9648C303.64 39.7076 307.973 46.4505 316.191 46.4505C324.408 46.4505 328.891 39.7076 328.891 32.9648Z" fill="white"/>
<path d="M376.853 42.1051L383.278 46.3007C379.692 50.9458 374.014 53.7928 367.291 53.7928C355.337 53.7928 346.821 44.6524 346.821 32.9648C346.821 21.2771 355.337 12.1367 367.291 12.1367C374.014 12.1367 379.692 14.9837 383.278 19.6288L376.853 23.9742C374.761 21.4269 371.474 19.6288 367.291 19.6288C358.923 19.6288 354.74 26.3717 354.74 32.9648C354.74 39.7076 359.073 46.4505 367.291 46.4505C371.624 46.4505 374.761 44.8023 376.853 42.1051Z" fill="white"/>
<path d="M419.137 45.1022H402.552L399.863 53.0438H391.645L406.138 12.7363H415.701L430.194 53.0438H421.976L419.137 45.1022ZM416.747 38.2095L410.77 20.8278L404.794 38.2095H416.747Z" fill="white"/>
<path d="M463.663 45.851V53.0434H440.354V12.8857H448.124V45.851H463.663Z" fill="white"/>
<path d="M330.534 69.0771V126.616H313.501V95.1497L300.054 118.675H294.824L281.228 95.1497V126.766H264.194V69.0771H282.572L297.215 94.85L311.858 69.0771H330.534V69.0771Z" fill="white"/>
<path d="M378.497 112.681V126.616H339.5V69.0771H377.75V83.1623H356.533V90.9541H375.21V104.29H356.533V112.681H378.497Z" fill="white"/>
<path d="M438.561 97.8468C438.561 115.678 426.757 126.616 407.632 126.616H385.818V69.0771H407.632C426.757 69.0771 438.561 80.0156 438.561 97.8468ZM421.677 97.8468C421.677 89.6055 416.747 84.5109 407.782 84.5109H402.851V111.183H407.782C416.747 111.183 421.677 106.238 421.677 97.8468Z" fill="white"/>
<path d="M462.617 69.0771V126.616H445.583V69.0771H462.617Z" fill="white"/>
<path d="M505.947 117.476H488.466L485.926 126.616H467.548L486.673 69.0771H507.591L526.716 126.616H508.338L505.947 117.476ZM502.511 105.339L497.132 85.7096L491.753 105.339H502.511Z" fill="white"/>
<path d="M292.434 167.823C292.434 174.116 287.951 180.26 277.492 180.26C270.022 180.26 263.298 177.113 261.355 170.52L268.826 168.122C269.424 170.37 271.815 173.367 277.492 173.367C281.526 173.367 284.664 171.868 284.664 168.422C284.664 164.376 280.182 164.077 273.757 162.578C265.688 160.63 262.999 156.435 262.999 150.891C262.999 143.249 268.826 138.604 277.193 138.604C283.917 138.604 289.147 141.9 290.94 148.044L283.319 149.842C282.871 147.744 280.779 145.346 276.745 145.346C273.458 145.346 270.619 147.145 270.619 150.291C270.619 154.786 275.699 155.536 279.435 156.285C288.997 158.533 292.434 161.23 292.434 167.823Z" fill="white"/>
<path d="M335.913 139.203V164.676C335.913 174.116 330.235 180.26 319.627 180.26C309.168 180.26 303.341 174.116 303.341 164.676V139.203H311.11V163.627C311.11 170.37 315.145 172.768 319.627 172.768C323.96 172.768 327.994 170.22 327.994 163.627V139.203H335.913Z" fill="white"/>
<path d="M391.346 139.203V179.511H383.577V152.839L371.624 172.318H369.084L356.981 152.839V179.511H349.211V139.203H357.429L370.279 159.881L383.129 139.203H391.346Z" fill="white"/>
<path d="M446.63 139.203V179.511H438.86V152.839L426.907 172.318H424.367L412.264 152.839V179.511H404.495V139.203H412.712L425.562 159.881L438.412 139.203H446.63Z" fill="white"/>
<path d="M467.697 139.203V179.511H459.928V139.203H467.697Z" fill="white"/>
<path d="M506.246 146.396H496.534V179.361H488.765V146.396H479.053V139.203H506.097V146.396H506.246Z" fill="white"/>
<path d="M277.791 209.029V213.524H261.804V209.928C264.194 207.231 265.539 205.733 267.93 203.035C270.171 200.488 272.562 197.791 272.562 195.543C272.562 193.745 271.516 192.247 269.424 192.247C267.183 192.247 266.286 193.895 265.987 195.393L261.355 194.345C262.252 190.149 265.539 187.901 269.723 187.901C274.355 187.901 277.343 191.498 277.343 195.393C277.343 198.99 274.205 202.286 268.378 209.029H277.791V209.029Z" fill="white"/>
<path d="M304.387 201.087C304.387 207.83 301.697 214.123 294.227 214.123C286.905 214.123 284.066 207.68 284.066 201.087C284.066 194.494 286.756 188.051 294.227 188.051C301.697 188.051 304.387 194.344 304.387 201.087ZM299.456 201.087C299.456 197.041 298.261 192.696 294.227 192.696C290.192 192.696 288.997 197.041 288.997 201.087C288.997 205.133 290.192 209.478 294.227 209.478C298.261 209.478 299.456 205.133 299.456 201.087Z" fill="white"/>
<path d="M326.649 209.029V213.524H310.662V209.928C313.053 207.231 314.397 205.733 316.788 203.035C319.029 200.488 321.42 197.791 321.42 195.543C321.42 193.745 320.374 192.247 318.282 192.247C316.041 192.247 315.145 193.895 314.846 195.393L310.214 194.345C311.11 190.149 314.397 187.901 318.581 187.901C323.213 187.901 326.201 191.498 326.201 195.393C326.201 198.99 323.064 202.286 317.236 209.029H326.649V209.029Z" fill="white"/>
<path d="M349.361 209.029V213.524H333.374V209.928C335.764 207.231 337.109 205.733 339.5 203.035C341.741 200.488 344.131 197.791 344.131 195.543C344.131 193.745 343.085 192.247 340.994 192.247C338.752 192.247 337.856 193.895 337.557 195.393L332.925 194.345C333.822 190.149 337.109 187.901 341.293 187.901C345.924 187.901 348.913 191.498 348.913 195.393C348.913 198.99 345.775 202.286 339.948 209.029H349.361V209.029Z" fill="white"/>
<path d="M162.443 195.993C141.076 171.719 119.561 148.943 99.9875 124.369C75.0352 93.0518 79.9659 47.35 109.699 20.2286C139.284 -6.74301 184.706 -6.89285 214.29 20.0787C244.023 47.2001 248.655 92.0029 224.3 124.219C217.278 133.509 209.359 142.05 201.739 150.891C188.889 165.875 175.89 180.56 162.443 195.993ZM124.342 77.7679C124.193 98.8957 141.076 115.978 161.995 115.978C182.763 115.978 199.647 99.3452 199.946 78.5171C200.245 57.3894 183.66 40.1576 162.592 39.8579C141.674 39.708 124.342 56.79 124.342 77.7679Z" fill="url(#paint2_linear_177_231)"/>
<path d="M189.188 77.768C189.039 62.634 176.787 50.4968 161.696 50.7964C146.754 51.0961 135.1 62.9337 135.1 77.9179C135.1 93.2017 147.203 105.339 162.294 105.189C177.235 105.189 189.338 93.0519 189.188 77.768Z" fill="url(#paint3_linear_177_231)"/>
<path d="M189.188 77.7679C189.338 93.0518 177.235 105.189 162.144 105.189C147.053 105.189 134.951 93.0518 134.951 77.9177C134.951 62.9335 146.754 51.096 161.546 50.7963C176.787 50.6465 189.039 62.6338 189.188 77.7679Z" fill="url(#paint4_linear_177_231)"/>
<path d="M171.109 198.54C162.742 207.381 162.144 207.68 153.926 198.54C151.685 195.993 149.294 193.445 147.203 190.898C140.927 183.556 134.951 180.709 125.986 183.706C115.377 187.302 104.171 189.849 94.1603 194.794C83.4025 200.188 83.7013 207.381 94.1603 213.824C110.447 223.714 128.974 225.961 147.501 227.46C152.432 227.909 157.512 227.909 162.443 227.909C167.374 227.909 172.005 227.909 176.936 227.46C195.314 225.961 213.543 223.714 229.679 213.824C239.989 207.531 240.437 200.188 229.679 194.794C219.818 189.849 208.761 187.302 198.302 183.706C189.487 180.709 183.51 183.406 177.384 190.898C175.293 193.445 173.051 195.993 170.81 198.54" fill="url(#paint5_linear_177_231)"/>
</g>
<g filter="url(#filter0_d_177_231)">
<path d="M15.4846 254.5H28.9846V259H20.4346V267.325H27.2296V271.825H20.4346V281.5H28.9846V286H15.4846V254.5ZM31.8323 254.5H38.8973L42.0473 277.045H42.1373L45.2873 254.5H52.3523V286H47.6723V262.15H47.5823L43.9823 286H39.8423L36.2423 262.15H36.1523V286H31.8323V254.5ZM56.0462 254.5H69.5462V259H60.9962V267.325H67.7912V271.825H60.9962V281.5H69.5462V286H56.0462V254.5ZM72.3938 254.5H79.7288C82.2788 254.5 84.1388 255.1 85.3088 256.3C86.4788 257.47 87.0638 259.285 87.0638 261.745V263.68C87.0638 266.95 85.9838 269.02 83.8238 269.89V269.98C85.0238 270.34 85.8638 271.075 86.3438 272.185C86.8538 273.295 87.1088 274.78 87.1088 276.64V282.175C87.1088 283.075 87.1388 283.81 87.1988 284.38C87.2588 284.92 87.4088 285.46 87.6488 286H82.6088C82.4288 285.49 82.3088 285.01 82.2488 284.56C82.1888 284.11 82.1588 283.3 82.1588 282.13V276.37C82.1588 274.93 81.9188 273.925 81.4388 273.355C80.9888 272.785 80.1938 272.5 79.0538 272.5H77.3438V286H72.3938V254.5ZM79.1438 268C80.1338 268 80.8688 267.745 81.3488 267.235C81.8588 266.725 82.1138 265.87 82.1138 264.67V262.24C82.1138 261.1 81.9038 260.275 81.4838 259.765C81.0938 259.255 80.4638 259 79.5938 259H77.3438V268H79.1438ZM97.5632 286.45C95.1632 286.45 93.3332 285.775 92.0732 284.425C90.8132 283.045 90.1832 281.08 90.1832 278.53V261.97C90.1832 259.42 90.8132 257.47 92.0732 256.12C93.3332 254.74 95.1632 254.05 97.5632 254.05C99.9632 254.05 101.793 254.74 103.053 256.12C104.313 257.47 104.943 259.42 104.943 261.97V264.67H100.263V261.655C100.263 259.585 99.4082 258.55 97.6982 258.55C95.9882 258.55 95.1332 259.585 95.1332 261.655V278.89C95.1332 280.93 95.9882 281.95 97.6982 281.95C99.4082 281.95 100.263 280.93 100.263 278.89V272.725H97.7882V268.225H104.943V278.53C104.943 281.08 104.313 283.045 103.053 284.425C101.793 285.775 99.9632 286.45 97.5632 286.45ZM108.121 254.5H113.071V286H108.121V254.5ZM116.779 254.5H122.989L127.804 273.355H127.894V254.5H132.304V286H127.219L121.279 263.005H121.189V286H116.779V254.5ZM143.003 286.45C140.603 286.45 138.773 285.775 137.513 284.425C136.253 283.045 135.623 281.08 135.623 278.53V261.97C135.623 259.42 136.253 257.47 137.513 256.12C138.773 254.74 140.603 254.05 143.003 254.05C145.403 254.05 147.233 254.74 148.493 256.12C149.753 257.47 150.383 259.42 150.383 261.97V264.67H145.703V261.655C145.703 259.585 144.848 258.55 143.138 258.55C141.428 258.55 140.573 259.585 140.573 261.655V278.89C140.573 280.93 141.428 281.95 143.138 281.95C144.848 281.95 145.703 280.93 145.703 278.89V272.725H143.228V268.225H150.383V278.53C150.383 281.08 149.753 283.045 148.493 284.425C147.233 285.775 145.403 286.45 143.003 286.45ZM160.768 254.5H165.718V281.5H173.863V286H160.768V254.5ZM183.216 286.45C180.786 286.45 178.926 285.76 177.636 284.38C176.346 283 175.701 281.05 175.701 278.53V261.97C175.701 259.45 176.346 257.5 177.636 256.12C178.926 254.74 180.786 254.05 183.216 254.05C185.646 254.05 187.506 254.74 188.796 256.12C190.086 257.5 190.731 259.45 190.731 261.97V278.53C190.731 281.05 190.086 283 188.796 284.38C187.506 285.76 185.646 286.45 183.216 286.45ZM183.216 281.95C184.926 281.95 185.781 280.915 185.781 278.845V261.655C185.781 259.585 184.926 258.55 183.216 258.55C181.506 258.55 180.651 259.585 180.651 261.655V278.845C180.651 280.915 181.506 281.95 183.216 281.95ZM201.053 286.45C198.683 286.45 196.868 285.775 195.608 284.425C194.378 283.075 193.763 281.17 193.763 278.71V261.79C193.763 259.33 194.378 257.425 195.608 256.075C196.868 254.725 198.683 254.05 201.053 254.05C203.423 254.05 205.223 254.725 206.453 256.075C207.713 257.425 208.343 259.33 208.343 261.79V265.12H203.663V261.475C203.663 259.525 202.838 258.55 201.188 258.55C199.538 258.55 198.713 259.525 198.713 261.475V279.07C198.713 280.99 199.538 281.95 201.188 281.95C202.838 281.95 203.663 280.99 203.663 279.07V274.255H208.343V278.71C208.343 281.17 207.713 283.075 206.453 284.425C205.223 285.775 203.423 286.45 201.053 286.45ZM215.13 254.5H221.835L226.965 286H222.015L221.115 279.745V279.835H215.49L214.59 286H210L215.13 254.5ZM220.53 275.56L218.325 259.99H218.235L216.075 275.56H220.53ZM229.366 254.5H234.316V281.5H242.461V286H229.366V254.5ZM252.042 254.5H259.107L262.257 277.045H262.347L265.497 254.5H272.562V286H267.882V262.15H267.792L264.192 286H260.052L256.452 262.15H256.362V286H252.042V254.5ZM276.256 254.5H289.756V259H281.206V267.325H288.001V271.825H281.206V281.5H289.756V286H276.256V254.5ZM292.604 254.5H300.164C302.624 254.5 304.469 255.16 305.699 256.48C306.929 257.8 307.544 259.735 307.544 262.285V278.215C307.544 280.765 306.929 282.7 305.699 284.02C304.469 285.34 302.624 286 300.164 286H292.604V254.5ZM300.074 281.5C300.884 281.5 301.499 281.26 301.919 280.78C302.369 280.3 302.594 279.52 302.594 278.44V262.06C302.594 260.98 302.369 260.2 301.919 259.72C301.499 259.24 300.884 259 300.074 259H297.554V281.5H300.074ZM310.885 254.5H315.835V286H310.885V254.5ZM323.367 254.5H330.072L335.202 286H330.252L329.352 279.745V279.835H323.727L322.827 286H318.237L323.367 254.5ZM328.767 275.56L326.562 259.99H326.472L324.312 275.56H328.767ZM344.811 254.5H352.281C354.831 254.5 356.691 255.1 357.861 256.3C359.031 257.47 359.616 259.285 359.616 261.745V263.005C359.616 264.625 359.346 265.945 358.806 266.965C358.296 267.985 357.501 268.72 356.421 269.17V269.26C358.881 270.1 360.111 272.29 360.111 275.83V278.53C360.111 280.96 359.466 282.82 358.176 284.11C356.916 285.37 355.056 286 352.596 286H344.811V254.5ZM351.696 267.325C352.686 267.325 353.421 267.07 353.901 266.56C354.411 266.05 354.666 265.195 354.666 263.995V262.24C354.666 261.1 354.456 260.275 354.036 259.765C353.646 259.255 353.016 259 352.146 259H349.761V267.325H351.696ZM352.596 281.5C353.466 281.5 354.111 281.275 354.531 280.825C354.951 280.345 355.161 279.535 355.161 278.395V275.65C355.161 274.21 354.906 273.22 354.396 272.68C353.916 272.11 353.106 271.825 351.966 271.825H349.761V281.5H352.596ZM370.204 286.45C367.804 286.45 365.974 285.775 364.714 284.425C363.454 283.045 362.824 281.08 362.824 278.53V254.5H367.774V278.89C367.774 279.97 367.984 280.75 368.404 281.23C368.854 281.71 369.484 281.95 370.294 281.95C371.104 281.95 371.719 281.71 372.139 281.23C372.589 280.75 372.814 279.97 372.814 278.89V254.5H377.584V278.53C377.584 281.08 376.954 283.045 375.694 284.425C374.434 285.775 372.604 286.45 370.204 286.45ZM387.545 286.45C385.145 286.45 383.33 285.775 382.1 284.425C380.87 283.045 380.255 281.08 380.255 278.53V276.73H384.935V278.89C384.935 280.93 385.79 281.95 387.5 281.95C388.34 281.95 388.97 281.71 389.39 281.23C389.84 280.72 390.065 279.91 390.065 278.8C390.065 277.48 389.765 276.325 389.165 275.335C388.565 274.315 387.455 273.1 385.835 271.69C383.795 269.89 382.37 268.27 381.56 266.83C380.75 265.36 380.345 263.71 380.345 261.88C380.345 259.39 380.975 257.47 382.235 256.12C383.495 254.74 385.325 254.05 387.725 254.05C390.095 254.05 391.88 254.74 393.08 256.12C394.31 257.47 394.925 259.42 394.925 261.97V263.275H390.245V261.655C390.245 260.575 390.035 259.795 389.615 259.315C389.195 258.805 388.58 258.55 387.77 258.55C386.12 258.55 385.295 259.555 385.295 261.565C385.295 262.705 385.595 263.77 386.195 264.76C386.825 265.75 387.95 266.95 389.57 268.36C391.64 270.16 393.065 271.795 393.845 273.265C394.625 274.735 395.015 276.46 395.015 278.44C395.015 281.02 394.37 283 393.08 284.38C391.82 285.76 389.975 286.45 387.545 286.45ZM397.853 254.5H402.803V286H397.853V254.5ZM406.51 254.5H412.72L417.535 273.355H417.625V254.5H422.035V286H416.95L411.01 263.005H410.92V286H406.51V254.5ZM425.714 254.5H439.214V259H430.664V267.325H437.459V271.825H430.664V281.5H439.214V286H425.714V254.5ZM448.585 286.45C446.185 286.45 444.37 285.775 443.14 284.425C441.91 283.045 441.295 281.08 441.295 278.53V276.73H445.975V278.89C445.975 280.93 446.83 281.95 448.54 281.95C449.38 281.95 450.01 281.71 450.43 281.23C450.88 280.72 451.105 279.91 451.105 278.8C451.105 277.48 450.805 276.325 450.205 275.335C449.605 274.315 448.495 273.1 446.875 271.69C444.835 269.89 443.41 268.27 442.6 266.83C441.79 265.36 441.385 263.71 441.385 261.88C441.385 259.39 442.015 257.47 443.275 256.12C444.535 254.74 446.365 254.05 448.765 254.05C451.135 254.05 452.92 254.74 454.12 256.12C455.35 257.47 455.965 259.42 455.965 261.97V263.275H451.285V261.655C451.285 260.575 451.075 259.795 450.655 259.315C450.235 258.805 449.62 258.55 448.81 258.55C447.16 258.55 446.335 259.555 446.335 261.565C446.335 262.705 446.635 263.77 447.235 264.76C447.865 265.75 448.99 266.95 450.61 268.36C452.68 270.16 454.105 271.795 454.885 273.265C455.665 274.735 456.055 276.46 456.055 278.44C456.055 281.02 455.41 283 454.12 284.38C452.86 285.76 451.015 286.45 448.585 286.45ZM465.328 286.45C462.928 286.45 461.113 285.775 459.883 284.425C458.653 283.045 458.038 281.08 458.038 278.53V276.73H462.718V278.89C462.718 280.93 463.573 281.95 465.283 281.95C466.123 281.95 466.753 281.71 467.173 281.23C467.623 280.72 467.848 279.91 467.848 278.8C467.848 277.48 467.548 276.325 466.948 275.335C466.348 274.315 465.238 273.1 463.618 271.69C461.578 269.89 460.153 268.27 459.343 266.83C458.533 265.36 458.128 263.71 458.128 261.88C458.128 259.39 458.758 257.47 460.018 256.12C461.278 254.74 463.108 254.05 465.508 254.05C467.878 254.05 469.663 254.74 470.863 256.12C472.093 257.47 472.708 259.42 472.708 261.97V263.275H468.028V261.655C468.028 260.575 467.818 259.795 467.398 259.315C466.978 258.805 466.363 258.55 465.553 258.55C463.903 258.55 463.078 259.555 463.078 261.565C463.078 262.705 463.378 263.77 463.978 264.76C464.608 265.75 465.733 266.95 467.353 268.36C469.423 270.16 470.848 271.795 471.628 273.265C472.408 274.735 472.798 276.46 472.798 278.44C472.798 281.02 472.153 283 470.863 284.38C469.603 285.76 467.758 286.45 465.328 286.45ZM481.538 254.5H486.533L489.773 278.935H489.863L493.103 254.5H497.648L492.878 286H486.308L481.538 254.5ZM500.026 254.5H504.976V286H500.026V254.5ZM512.508 254.5H519.213L524.343 286H519.393L518.493 279.745V279.835H512.868L511.968 286H507.378L512.508 254.5ZM517.908 275.56L515.703 259.99H515.613L513.453 275.56H517.908ZM526.744 254.5H534.214C536.764 254.5 538.624 255.1 539.794 256.3C540.964 257.47 541.549 259.285 541.549 261.745V263.005C541.549 264.625 541.279 265.945 540.739 266.965C540.229 267.985 539.434 268.72 538.354 269.17V269.26C540.814 270.1 542.044 272.29 542.044 275.83V278.53C542.044 280.96 541.399 282.82 540.109 284.11C538.849 285.37 536.989 286 534.529 286H526.744V254.5ZM533.629 267.325C534.619 267.325 535.354 267.07 535.834 266.56C536.344 266.05 536.599 265.195 536.599 263.995V262.24C536.599 261.1 536.389 260.275 535.969 259.765C535.579 259.255 534.949 259 534.079 259H531.694V267.325H533.629ZM534.529 281.5C535.399 281.5 536.044 281.275 536.464 280.825C536.884 280.345 537.094 279.535 537.094 278.395V275.65C537.094 274.21 536.839 273.22 536.329 272.68C535.849 272.11 535.039 271.825 533.899 271.825H531.694V281.5H534.529ZM544.938 254.5H549.888V286H544.938V254.5ZM553.595 254.5H558.545V281.5H566.69V286H553.595V254.5ZM569.064 254.5H574.014V286H569.064V254.5ZM581.591 259H576.416V254.5H591.716V259H586.541V286H581.591V259ZM598.833 272.59L592.848 254.5H598.113L601.488 266.065H601.578L604.953 254.5H609.768L603.783 272.59V286H598.833V272.59ZM76.3737 314H71.1987V309.5H86.4987V314H81.3237V341H76.3737V314ZM95.8745 341.45C93.4445 341.45 91.5845 340.76 90.2945 339.38C89.0045 338 88.3595 336.05 88.3595 333.53V316.97C88.3595 314.45 89.0045 312.5 90.2945 311.12C91.5845 309.74 93.4445 309.05 95.8745 309.05C98.3045 309.05 100.165 309.74 101.455 311.12C102.745 312.5 103.39 314.45 103.39 316.97V333.53C103.39 336.05 102.745 338 101.455 339.38C100.165 340.76 98.3045 341.45 95.8745 341.45ZM95.8745 336.95C97.5845 336.95 98.4395 335.915 98.4395 333.845V316.655C98.4395 314.585 97.5845 313.55 95.8745 313.55C94.1645 313.55 93.3095 314.585 93.3095 316.655V333.845C93.3095 335.915 94.1645 336.95 95.8745 336.95ZM113.944 309.5H121.279C123.829 309.5 125.689 310.1 126.859 311.3C128.029 312.47 128.614 314.285 128.614 316.745V318.68C128.614 321.95 127.534 324.02 125.374 324.89V324.98C126.574 325.34 127.414 326.075 127.894 327.185C128.404 328.295 128.659 329.78 128.659 331.64V337.175C128.659 338.075 128.689 338.81 128.749 339.38C128.809 339.92 128.959 340.46 129.199 341H124.159C123.979 340.49 123.859 340.01 123.799 339.56C123.739 339.11 123.709 338.3 123.709 337.13V331.37C123.709 329.93 123.469 328.925 122.989 328.355C122.539 327.785 121.744 327.5 120.604 327.5H118.894V341H113.944V309.5ZM120.694 323C121.684 323 122.419 322.745 122.899 322.235C123.409 321.725 123.664 320.87 123.664 319.67V317.24C123.664 316.1 123.454 315.275 123.034 314.765C122.644 314.255 122.014 314 121.144 314H118.894V323H120.694ZM132.094 309.5H145.594V314H137.044V322.325H143.839V326.825H137.044V336.5H145.594V341H132.094V309.5ZM148.441 309.5H155.731C158.191 309.5 160.036 310.16 161.266 311.48C162.496 312.8 163.111 314.735 163.111 317.285V320.39C163.111 322.94 162.496 324.875 161.266 326.195C160.036 327.515 158.191 328.175 155.731 328.175H153.391V341H148.441V309.5ZM155.731 323.675C156.541 323.675 157.141 323.45 157.531 323C157.951 322.55 158.161 321.785 158.161 320.705V316.97C158.161 315.89 157.951 315.125 157.531 314.675C157.141 314.225 156.541 314 155.731 314H153.391V323.675H155.731ZM165.8 309.5H173.135C175.685 309.5 177.545 310.1 178.715 311.3C179.885 312.47 180.47 314.285 180.47 316.745V318.68C180.47 321.95 179.39 324.02 177.23 324.89V324.98C178.43 325.34 179.27 326.075 179.75 327.185C180.26 328.295 180.515 329.78 180.515 331.64V337.175C180.515 338.075 180.545 338.81 180.605 339.38C180.665 339.92 180.815 340.46 181.055 341H176.015C175.835 340.49 175.715 340.01 175.655 339.56C175.595 339.11 175.565 338.3 175.565 337.13V331.37C175.565 329.93 175.325 328.925 174.845 328.355C174.395 327.785 173.6 327.5 172.46 327.5H170.75V341H165.8V309.5ZM172.55 323C173.54 323 174.275 322.745 174.755 322.235C175.265 321.725 175.52 320.87 175.52 319.67V317.24C175.52 316.1 175.31 315.275 174.89 314.765C174.5 314.255 173.87 314 173 314H170.75V323H172.55ZM183.949 309.5H197.449V314H188.899V322.325H195.694V326.825H188.899V336.5H197.449V341H183.949V309.5ZM206.82 341.45C204.42 341.45 202.605 340.775 201.375 339.425C200.145 338.045 199.53 336.08 199.53 333.53V331.73H204.21V333.89C204.21 335.93 205.065 336.95 206.775 336.95C207.615 336.95 208.245 336.71 208.665 336.23C209.115 335.72 209.34 334.91 209.34 333.8C209.34 332.48 209.04 331.325 208.44 330.335C207.84 329.315 206.73 328.1 205.11 326.69C203.07 324.89 201.645 323.27 200.835 321.83C200.025 320.36 199.62 318.71 199.62 316.88C199.62 314.39 200.25 312.47 201.51 311.12C202.77 309.74 204.6 309.05 207 309.05C209.37 309.05 211.155 309.74 212.355 311.12C213.585 312.47 214.2 314.42 214.2 316.97V318.275H209.52V316.655C209.52 315.575 209.31 314.795 208.89 314.315C208.47 313.805 207.855 313.55 207.045 313.55C205.395 313.55 204.57 314.555 204.57 316.565C204.57 317.705 204.87 318.77 205.47 319.76C206.1 320.75 207.225 321.95 208.845 323.36C210.915 325.16 212.34 326.795 213.12 328.265C213.9 329.735 214.29 331.46 214.29 333.44C214.29 336.02 213.645 338 212.355 339.38C211.095 340.76 209.25 341.45 206.82 341.45ZM217.128 309.5H230.628V314H222.078V322.325H228.873V326.825H222.078V336.5H230.628V341H217.128V309.5ZM233.475 309.5H239.685L244.5 328.355H244.59V309.5H249V341H243.915L237.975 318.005H237.885V341H233.475V309.5ZM256.549 314H251.374V309.5H266.674V314H261.499V341H256.549V314ZM280.148 314H274.973V309.5H290.273V314H285.098V341H280.148V314ZM292.67 309.5H297.62V322.325H302.93V309.5H307.88V341H302.93V326.825H297.62V341H292.67V309.5ZM311.566 309.5H325.066V314H316.516V322.325H323.311V326.825H316.516V336.5H325.066V341H311.566V309.5ZM342.321 341.45C339.921 341.45 338.091 340.775 336.831 339.425C335.571 338.045 334.941 336.08 334.941 333.53V309.5H339.891V333.89C339.891 334.97 340.101 335.75 340.521 336.23C340.971 336.71 341.601 336.95 342.411 336.95C343.221 336.95 343.836 336.71 344.256 336.23C344.706 335.75 344.931 334.97 344.931 333.89V309.5H349.701V333.53C349.701 336.08 349.071 338.045 347.811 339.425C346.551 340.775 344.721 341.45 342.321 341.45ZM353.226 309.5H359.436L364.251 328.355H364.341V309.5H368.751V341H363.666L357.726 318.005H357.636V341H353.226V309.5ZM372.43 309.5H379.765C382.315 309.5 384.175 310.1 385.345 311.3C386.515 312.47 387.1 314.285 387.1 316.745V318.68C387.1 321.95 386.02 324.02 383.86 324.89V324.98C385.06 325.34 385.9 326.075 386.38 327.185C386.89 328.295 387.145 329.78 387.145 331.64V337.175C387.145 338.075 387.175 338.81 387.235 339.38C387.295 339.92 387.445 340.46 387.685 341H382.645C382.465 340.49 382.345 340.01 382.285 339.56C382.225 339.11 382.195 338.3 382.195 337.13V331.37C382.195 329.93 381.955 328.925 381.475 328.355C381.025 327.785 380.23 327.5 379.09 327.5H377.38V341H372.43V309.5ZM379.18 323C380.17 323 380.905 322.745 381.385 322.235C381.895 321.725 382.15 320.87 382.15 319.67V317.24C382.15 316.1 381.94 315.275 381.52 314.765C381.13 314.255 380.5 314 379.63 314H377.38V323H379.18ZM390.58 309.5H404.08V314H395.53V322.325H402.325V326.825H395.53V336.5H404.08V341H390.58V309.5ZM406.928 309.5H414.218C416.678 309.5 418.523 310.16 419.753 311.48C420.983 312.8 421.598 314.735 421.598 317.285V320.39C421.598 322.94 420.983 324.875 419.753 326.195C418.523 327.515 416.678 328.175 414.218 328.175H411.878V341H406.928V309.5ZM414.218 323.675C415.028 323.675 415.628 323.45 416.018 323C416.438 322.55 416.648 321.785 416.648 320.705V316.97C416.648 315.89 416.438 315.125 416.018 314.675C415.628 314.225 415.028 314 414.218 314H411.878V323.675H414.218ZM424.286 309.5H431.621C434.171 309.5 436.031 310.1 437.201 311.3C438.371 312.47 438.956 314.285 438.956 316.745V318.68C438.956 321.95 437.876 324.02 435.716 324.89V324.98C436.916 325.34 437.756 326.075 438.236 327.185C438.746 328.295 439.001 329.78 439.001 331.64V337.175C439.001 338.075 439.031 338.81 439.091 339.38C439.151 339.92 439.301 340.46 439.541 341H434.501C434.321 340.49 434.201 340.01 434.141 339.56C434.081 339.11 434.051 338.3 434.051 337.13V331.37C434.051 329.93 433.811 328.925 433.331 328.355C432.881 327.785 432.086 327.5 430.946 327.5H429.236V341H424.286V309.5ZM431.036 323C432.026 323 432.761 322.745 433.241 322.235C433.751 321.725 434.006 320.87 434.006 319.67V317.24C434.006 316.1 433.796 315.275 433.376 314.765C432.986 314.255 432.356 314 431.486 314H429.236V323H431.036ZM442.435 309.5H455.935V314H447.385V322.325H454.18V326.825H447.385V336.5H455.935V341H442.435V309.5ZM465.306 341.45C462.906 341.45 461.091 340.775 459.861 339.425C458.631 338.045 458.016 336.08 458.016 333.53V331.73H462.696V333.89C462.696 335.93 463.551 336.95 465.261 336.95C466.101 336.95 466.731 336.71 467.151 336.23C467.601 335.72 467.826 334.91 467.826 333.8C467.826 332.48 467.526 331.325 466.926 330.335C466.326 329.315 465.216 328.1 463.596 326.69C461.556 324.89 460.131 323.27 459.321 321.83C458.511 320.36 458.106 318.71 458.106 316.88C458.106 314.39 458.736 312.47 459.996 311.12C461.256 309.74 463.086 309.05 465.486 309.05C467.856 309.05 469.641 309.74 470.841 311.12C472.071 312.47 472.686 314.42 472.686 316.97V318.275H468.006V316.655C468.006 315.575 467.796 314.795 467.376 314.315C466.956 313.805 466.341 313.55 465.531 313.55C463.881 313.55 463.056 314.555 463.056 316.565C463.056 317.705 463.356 318.77 463.956 319.76C464.586 320.75 465.711 321.95 467.331 323.36C469.401 325.16 470.826 326.795 471.606 328.265C472.386 329.735 472.776 331.46 472.776 333.44C472.776 336.02 472.131 338 470.841 339.38C469.581 340.76 467.736 341.45 465.306 341.45ZM475.614 309.5H489.114V314H480.564V322.325H487.359V326.825H480.564V336.5H489.114V341H475.614V309.5ZM491.962 309.5H498.172L502.987 328.355H503.077V309.5H507.487V341H502.402L496.462 318.005H496.372V341H491.962V309.5ZM515.036 314H509.861V309.5H525.161V314H519.986V341H515.036V314ZM527.557 309.5H541.057V314H532.507V322.325H539.302V326.825H532.507V336.5H541.057V341H527.557V309.5ZM543.905 309.5H551.465C553.925 309.5 555.77 310.16 557 311.48C558.23 312.8 558.845 314.735 558.845 317.285V333.215C558.845 335.765 558.23 337.7 557 339.02C555.77 340.34 553.925 341 551.465 341H543.905V309.5ZM551.375 336.5C552.185 336.5 552.8 336.26 553.22 335.78C553.67 335.3 553.895 334.52 553.895 333.44V317.06C553.895 315.98 553.67 315.2 553.22 314.72C552.8 314.24 552.185 314 551.375 314H548.855V336.5H551.375Z" fill="#FEA802"/>
</g>
<path d="M8.82963 392.8H5.14963V389.6H16.0296V392.8H12.3496V412H8.82963V392.8ZM17.7339 389.6H27.3339V392.8H21.2539V398.72H26.0859V401.92H21.2539V408.8H27.3339V412H17.7339V389.6ZM34.3189 412.32C32.6335 412.32 31.3429 411.84 30.4469 410.88C29.5722 409.92 29.1349 408.565 29.1349 406.816V394.784C29.1349 393.035 29.5722 391.68 30.4469 390.72C31.3429 389.76 32.6335 389.28 34.3189 389.28C36.0042 389.28 37.2842 389.76 38.1589 390.72C39.0549 391.68 39.5029 393.035 39.5029 394.784V397.152H36.1749V394.56C36.1749 393.173 35.5882 392.48 34.4149 392.48C33.2415 392.48 32.6549 393.173 32.6549 394.56V407.072C32.6549 408.437 33.2415 409.12 34.4149 409.12C35.5882 409.12 36.1749 408.437 36.1749 407.072V403.648H39.5029V406.816C39.5029 408.565 39.0549 409.92 38.1589 410.88C37.2842 411.84 36.0042 412.32 34.3189 412.32ZM41.6089 389.6H45.1289V398.72H48.9049V389.6H52.4249V412H48.9049V401.92H45.1289V412H41.6089V389.6ZM55.0464 389.6H59.4624L62.8864 403.008H62.9504V389.6H66.0864V412H62.4704L58.2464 395.648H58.1824V412H55.0464V389.6ZM73.7906 412.32C72.0626 412.32 70.74 411.829 69.8226 410.848C68.9053 409.867 68.4466 408.48 68.4466 406.688V394.912C68.4466 393.12 68.9053 391.733 69.8226 390.752C70.74 389.771 72.0626 389.28 73.7906 389.28C75.5186 389.28 76.8413 389.771 77.7586 390.752C78.676 391.733 79.1346 393.12 79.1346 394.912V406.688C79.1346 408.48 78.676 409.867 77.7586 410.848C76.8413 411.829 75.5186 412.32 73.7906 412.32ZM73.7906 409.12C75.0066 409.12 75.6146 408.384 75.6146 406.912V394.688C75.6146 393.216 75.0066 392.48 73.7906 392.48C72.5746 392.48 71.9666 393.216 71.9666 394.688V406.912C71.9666 408.384 72.5746 409.12 73.7906 409.12ZM81.5151 389.6H85.0351V408.8H90.8271V412H81.5151V389.6ZM97.4781 412.32C95.7501 412.32 94.4275 411.829 93.5101 410.848C92.5928 409.867 92.1341 408.48 92.1341 406.688V394.912C92.1341 393.12 92.5928 391.733 93.5101 390.752C94.4275 389.771 95.7501 389.28 97.4781 389.28C99.2061 389.28 100.529 389.771 101.446 390.752C102.363 391.733 102.822 393.12 102.822 394.912V406.688C102.822 408.48 102.363 409.867 101.446 410.848C100.529 411.829 99.2061 412.32 97.4781 412.32ZM97.4781 409.12C98.6941 409.12 99.3021 408.384 99.3021 406.912V394.688C99.3021 393.216 98.6941 392.48 97.4781 392.48C96.2621 392.48 95.6541 393.216 95.6541 394.688V406.912C95.6541 408.384 96.2621 409.12 97.4781 409.12ZM110.195 412.32C108.488 412.32 107.187 411.84 106.291 410.88C105.395 409.899 104.947 408.501 104.947 406.688V394.912C104.947 393.099 105.395 391.712 106.291 390.752C107.187 389.771 108.488 389.28 110.195 389.28C111.901 389.28 113.203 389.771 114.099 390.752C114.995 391.712 115.443 393.099 115.443 394.912V396.832H112.115V394.688C112.115 393.216 111.507 392.48 110.291 392.48C109.075 392.48 108.467 393.216 108.467 394.688V406.944C108.467 408.395 109.075 409.12 110.291 409.12C111.507 409.12 112.115 408.395 112.115 406.944V402.56H110.355V399.36H115.443V406.688C115.443 408.501 114.995 409.899 114.099 410.88C113.203 411.84 111.901 412.32 110.195 412.32ZM120.466 402.464L116.21 389.6H119.954L122.354 397.824H122.418L124.818 389.6H128.242L123.986 402.464V412H120.466V402.464ZM150.328 389.6H155.64C157.453 389.6 158.776 390.027 159.608 390.88C160.44 391.712 160.856 393.003 160.856 394.752V395.648C160.856 396.8 160.664 397.739 160.28 398.464C159.917 399.189 159.352 399.712 158.584 400.032V400.096C160.333 400.693 161.208 402.251 161.208 404.768V406.688C161.208 408.416 160.749 409.739 159.832 410.656C158.936 411.552 157.613 412 155.864 412H150.328V389.6ZM155.224 398.72C155.928 398.72 156.45 398.539 156.792 398.176C157.154 397.813 157.336 397.205 157.336 396.352V395.104C157.336 394.293 157.186 393.707 156.888 393.344C156.61 392.981 156.162 392.8 155.544 392.8H153.848V398.72H155.224ZM155.864 408.8C156.482 408.8 156.941 408.64 157.24 408.32C157.538 407.979 157.688 407.403 157.688 406.592V404.64C157.688 403.616 157.506 402.912 157.144 402.528C156.802 402.123 156.226 401.92 155.416 401.92H153.848V408.8H155.864ZM168.385 412.32C166.678 412.32 165.377 411.84 164.481 410.88C163.585 409.899 163.137 408.501 163.137 406.688V389.6H166.657V406.944C166.657 407.712 166.806 408.267 167.105 408.608C167.425 408.949 167.873 409.12 168.449 409.12C169.025 409.12 169.462 408.949 169.761 408.608C170.081 408.267 170.241 407.712 170.241 406.944V389.6H173.633V406.688C173.633 408.501 173.185 409.899 172.289 410.88C171.393 411.84 170.092 412.32 168.385 412.32ZM180.716 412.32C179.009 412.32 177.719 411.84 176.844 410.88C175.969 409.899 175.532 408.501 175.532 406.688V405.408H178.86V406.944C178.86 408.395 179.468 409.12 180.684 409.12C181.281 409.12 181.729 408.949 182.028 408.608C182.348 408.245 182.508 407.669 182.508 406.88C182.508 405.941 182.295 405.12 181.868 404.416C181.441 403.691 180.652 402.827 179.5 401.824C178.049 400.544 177.036 399.392 176.46 398.368C175.884 397.323 175.596 396.149 175.596 394.848C175.596 393.077 176.044 391.712 176.94 390.752C177.836 389.771 179.137 389.28 180.844 389.28C182.529 389.28 183.799 389.771 184.652 390.752C185.527 391.712 185.964 393.099 185.964 394.912V395.84H182.636V394.688C182.636 393.92 182.487 393.365 182.188 393.024C181.889 392.661 181.452 392.48 180.876 392.48C179.703 392.48 179.116 393.195 179.116 394.624C179.116 395.435 179.329 396.192 179.756 396.896C180.204 397.6 181.004 398.453 182.156 399.456C183.628 400.736 184.641 401.899 185.196 402.944C185.751 403.989 186.028 405.216 186.028 406.624C186.028 408.459 185.569 409.867 184.652 410.848C183.756 411.829 182.444 412.32 180.716 412.32ZM188.046 389.6H191.566V412H188.046V389.6ZM194.203 389.6H198.619L202.043 403.008H202.107V389.6H205.243V412H201.627L197.403 395.648H197.339V412H194.203V389.6ZM207.859 389.6H217.459V392.8H211.379V398.72H216.211V401.92H211.379V408.8H217.459V412H207.859V389.6ZM224.122 412.32C222.416 412.32 221.125 411.84 220.25 410.88C219.376 409.899 218.938 408.501 218.938 406.688V405.408H222.266V406.944C222.266 408.395 222.874 409.12 224.09 409.12C224.688 409.12 225.136 408.949 225.434 408.608C225.754 408.245 225.914 407.669 225.914 406.88C225.914 405.941 225.701 405.12 225.274 404.416C224.848 403.691 224.058 402.827 222.906 401.824C221.456 400.544 220.442 399.392 219.866 398.368C219.29 397.323 219.002 396.149 219.002 394.848C219.002 393.077 219.45 391.712 220.346 390.752C221.242 389.771 222.544 389.28 224.25 389.28C225.936 389.28 227.205 389.771 228.058 390.752C228.933 391.712 229.37 393.099 229.37 394.912V395.84H226.042V394.688C226.042 393.92 225.893 393.365 225.594 393.024C225.296 392.661 224.858 392.48 224.282 392.48C223.109 392.48 222.522 393.195 222.522 394.624C222.522 395.435 222.736 396.192 223.162 396.896C223.61 397.6 224.41 398.453 225.562 399.456C227.034 400.736 228.048 401.899 228.602 402.944C229.157 403.989 229.434 405.216 229.434 406.624C229.434 408.459 228.976 409.867 228.058 410.848C227.162 411.829 225.85 412.32 224.122 412.32ZM236.029 412.32C234.322 412.32 233.031 411.84 232.157 410.88C231.282 409.899 230.845 408.501 230.845 406.688V405.408H234.173V406.944C234.173 408.395 234.781 409.12 235.997 409.12C236.594 409.12 237.042 408.949 237.341 408.608C237.661 408.245 237.821 407.669 237.821 406.88C237.821 405.941 237.607 405.12 237.181 404.416C236.754 403.691 235.965 402.827 234.813 401.824C233.362 400.544 232.349 399.392 231.773 398.368C231.197 397.323 230.909 396.149 230.909 394.848C230.909 393.077 231.357 391.712 232.253 390.752C233.149 389.771 234.45 389.28 236.157 389.28C237.842 389.28 239.111 389.771 239.965 390.752C240.839 391.712 241.277 393.099 241.277 394.912V395.84H237.949V394.688C237.949 393.92 237.799 393.365 237.501 393.024C237.202 392.661 236.765 392.48 236.189 392.48C235.015 392.48 234.429 393.195 234.429 394.624C234.429 395.435 234.642 396.192 235.069 396.896C235.517 397.6 236.317 398.453 237.469 399.456C238.941 400.736 239.954 401.899 240.509 402.944C241.063 403.989 241.341 405.216 241.341 406.624C241.341 408.459 240.882 409.867 239.965 410.848C239.069 411.829 237.757 412.32 236.029 412.32ZM263.859 389.6H267.379V412H263.859V389.6ZM270.015 389.6H274.431L277.855 403.008H277.919V389.6H281.055V412H277.439L273.215 395.648H273.151V412H270.015V389.6ZM282.743 389.6H286.295L288.599 406.976H288.663L290.967 389.6H294.199L290.807 412H286.135L282.743 389.6ZM295.89 389.6H305.49V392.8H299.41V398.72H304.242V401.92H299.41V408.8H305.49V412H295.89V389.6ZM312.154 412.32C310.447 412.32 309.156 411.84 308.282 410.88C307.407 409.899 306.97 408.501 306.97 406.688V405.408H310.298V406.944C310.298 408.395 310.906 409.12 312.122 409.12C312.719 409.12 313.167 408.949 313.466 408.608C313.786 408.245 313.946 407.669 313.946 406.88C313.946 405.941 313.732 405.12 313.306 404.416C312.879 403.691 312.09 402.827 310.938 401.824C309.487 400.544 308.474 399.392 307.898 398.368C307.322 397.323 307.034 396.149 307.034 394.848C307.034 393.077 307.482 391.712 308.378 390.752C309.274 389.771 310.575 389.28 312.282 389.28C313.967 389.28 315.236 389.771 316.09 390.752C316.964 391.712 317.402 393.099 317.402 394.912V395.84H314.074V394.688C314.074 393.92 313.924 393.365 313.626 393.024C313.327 392.661 312.89 392.48 312.314 392.48C311.14 392.48 310.554 393.195 310.554 394.624C310.554 395.435 310.767 396.192 311.194 396.896C311.642 397.6 312.442 398.453 313.594 399.456C315.066 400.736 316.079 401.899 316.634 402.944C317.188 403.989 317.466 405.216 317.466 406.624C317.466 408.459 317.007 409.867 316.09 410.848C315.194 411.829 313.882 412.32 312.154 412.32ZM322.236 392.8H318.556V389.6H329.436V392.8H325.756V412H322.236V392.8ZM331.14 389.6H336.164L338.404 405.632H338.468L340.708 389.6H345.732V412H342.404V395.04H342.34L339.78 412H336.836L334.276 395.04H334.212V412H331.14V389.6ZM348.359 389.6H357.959V392.8H351.879V398.72H356.711V401.92H351.879V408.8H357.959V412H348.359V389.6ZM359.984 389.6H364.4L367.824 403.008H367.888V389.6H371.024V412H367.408L363.184 395.648H363.12V412H359.984V389.6ZM376.392 392.8H372.712V389.6H383.592V392.8H379.912V412H376.392V392.8ZM405.796 389.6H411.172C412.922 389.6 414.234 390.069 415.108 391.008C415.983 391.947 416.42 393.323 416.42 395.136V406.464C416.42 408.277 415.983 409.653 415.108 410.592C414.234 411.531 412.922 412 411.172 412H405.796V389.6ZM411.108 408.8C411.684 408.8 412.122 408.629 412.42 408.288C412.74 407.947 412.9 407.392 412.9 406.624V394.976C412.9 394.208 412.74 393.653 412.42 393.312C412.122 392.971 411.684 392.8 411.108 392.8H409.316V408.8H411.108ZM418.796 389.6H422.316V412H418.796V389.6ZM429.529 412.32C427.822 412.32 426.531 411.84 425.657 410.88C424.782 409.899 424.345 408.501 424.345 406.688V405.408H427.673V406.944C427.673 408.395 428.281 409.12 429.497 409.12C430.094 409.12 430.542 408.949 430.841 408.608C431.161 408.245 431.321 407.669 431.321 406.88C431.321 405.941 431.107 405.12 430.681 404.416C430.254 403.691 429.465 402.827 428.313 401.824C426.862 400.544 425.849 399.392 425.273 398.368C424.697 397.323 424.409 396.149 424.409 394.848C424.409 393.077 424.857 391.712 425.753 390.752C426.649 389.771 427.95 389.28 429.657 389.28C431.342 389.28 432.611 389.771 433.465 390.752C434.339 391.712 434.777 393.099 434.777 394.912V395.84H431.449V394.688C431.449 393.92 431.299 393.365 431.001 393.024C430.702 392.661 430.265 392.48 429.689 392.48C428.515 392.48 427.929 393.195 427.929 394.624C427.929 395.435 428.142 396.192 428.569 396.896C429.017 397.6 429.817 398.453 430.969 399.456C432.441 400.736 433.454 401.899 434.009 402.944C434.563 403.989 434.841 405.216 434.841 406.624C434.841 408.459 434.382 409.867 433.465 410.848C432.569 411.829 431.257 412.32 429.529 412.32ZM439.611 392.8H435.931V389.6H446.811V392.8H443.131V412H439.611V392.8ZM448.515 389.6H453.731C455.544 389.6 456.867 390.027 457.699 390.88C458.531 391.712 458.947 393.003 458.947 394.752V396.128C458.947 398.453 458.179 399.925 456.643 400.544V400.608C457.496 400.864 458.094 401.387 458.435 402.176C458.798 402.965 458.979 404.021 458.979 405.344V409.28C458.979 409.92 459 410.443 459.043 410.848C459.086 411.232 459.192 411.616 459.363 412H455.779C455.651 411.637 455.566 411.296 455.523 410.976C455.48 410.656 455.459 410.08 455.459 409.248V405.152C455.459 404.128 455.288 403.413 454.947 403.008C454.627 402.603 454.062 402.4 453.251 402.4H452.035V412H448.515V389.6ZM453.315 399.2C454.019 399.2 454.542 399.019 454.883 398.656C455.246 398.293 455.427 397.685 455.427 396.832V395.104C455.427 394.293 455.278 393.707 454.979 393.344C454.702 392.981 454.254 392.8 453.635 392.8H452.035V399.2H453.315ZM461.421 389.6H464.941V412H461.421V389.6ZM467.578 389.6H472.89C474.703 389.6 476.026 390.027 476.858 390.88C477.69 391.712 478.106 393.003 478.106 394.752V395.648C478.106 396.8 477.914 397.739 477.53 398.464C477.167 399.189 476.602 399.712 475.834 400.032V400.096C477.583 400.693 478.458 402.251 478.458 404.768V406.688C478.458 408.416 477.999 409.739 477.082 410.656C476.186 411.552 474.863 412 473.114 412H467.578V389.6ZM472.474 398.72C473.178 398.72 473.7 398.539 474.042 398.176C474.404 397.813 474.586 397.205 474.586 396.352V395.104C474.586 394.293 474.436 393.707 474.138 393.344C473.86 392.981 473.412 392.8 472.794 392.8H471.098V398.72H472.474ZM473.114 408.8C473.732 408.8 474.191 408.64 474.49 408.32C474.788 407.979 474.938 407.403 474.938 406.592V404.64C474.938 403.616 474.756 402.912 474.394 402.528C474.052 402.123 473.476 401.92 472.666 401.92H471.098V408.8H473.114ZM485.635 412.32C483.928 412.32 482.627 411.84 481.731 410.88C480.835 409.899 480.387 408.501 480.387 406.688V389.6H483.907V406.944C483.907 407.712 484.056 408.267 484.355 408.608C484.675 408.949 485.123 409.12 485.699 409.12C486.275 409.12 486.712 408.949 487.011 408.608C487.331 408.267 487.491 407.712 487.491 406.944V389.6H490.883V406.688C490.883 408.501 490.435 409.899 489.539 410.88C488.643 411.84 487.342 412.32 485.635 412.32ZM496.142 392.8H492.462V389.6H503.342V392.8H499.662V412H496.142V392.8ZM505.046 389.6H508.566V412H505.046V389.6ZM516.291 412.32C514.563 412.32 513.24 411.829 512.323 410.848C511.405 409.867 510.947 408.48 510.947 406.688V394.912C510.947 393.12 511.405 391.733 512.323 390.752C513.24 389.771 514.563 389.28 516.291 389.28C518.019 389.28 519.341 389.771 520.259 390.752C521.176 391.733 521.635 393.12 521.635 394.912V406.688C521.635 408.48 521.176 409.867 520.259 410.848C519.341 411.829 518.019 412.32 516.291 412.32ZM516.291 409.12C517.507 409.12 518.115 408.384 518.115 406.912V394.688C518.115 393.216 517.507 392.48 516.291 392.48C515.075 392.48 514.467 393.216 514.467 394.688V406.912C514.467 408.384 515.075 409.12 516.291 409.12ZM524.015 389.6H528.431L531.855 403.008H531.919V389.6H535.055V412H531.439L527.215 395.648H527.151V412H524.015V389.6ZM563.131 412.32C561.446 412.32 560.155 411.84 559.259 410.88C558.385 409.92 557.947 408.565 557.947 406.816V394.784C557.947 393.035 558.385 391.68 559.259 390.72C560.155 389.76 561.446 389.28 563.131 389.28C564.817 389.28 566.097 389.76 566.971 390.72C567.867 391.68 568.315 393.035 568.315 394.784V397.152H564.987V394.56C564.987 393.173 564.401 392.48 563.227 392.48C562.054 392.48 561.467 393.173 561.467 394.56V407.072C561.467 408.437 562.054 409.12 563.227 409.12C564.401 409.12 564.987 408.437 564.987 407.072V403.648H568.315V406.816C568.315 408.565 567.867 409.92 566.971 410.88C566.097 411.84 564.817 412.32 563.131 412.32ZM575.572 412.32C573.844 412.32 572.521 411.829 571.604 410.848C570.687 409.867 570.228 408.48 570.228 406.688V394.912C570.228 393.12 570.687 391.733 571.604 390.752C572.521 389.771 573.844 389.28 575.572 389.28C577.3 389.28 578.623 389.771 579.54 390.752C580.457 391.733 580.916 393.12 580.916 394.912V406.688C580.916 408.48 580.457 409.867 579.54 410.848C578.623 411.829 577.3 412.32 575.572 412.32ZM575.572 409.12C576.788 409.12 577.396 408.384 577.396 406.912V394.688C577.396 393.216 576.788 392.48 575.572 392.48C574.356 392.48 573.748 393.216 573.748 394.688V406.912C573.748 408.384 574.356 409.12 575.572 409.12ZM583.296 389.6H587.712L591.136 403.008H591.2V389.6H594.336V412H590.72L586.496 395.648H586.432V412H583.296V389.6ZM599.705 392.8H596.025V389.6H606.905V392.8H603.225V412H599.705V392.8ZM608.609 389.6H618.209V392.8H612.129V398.72H616.961V401.92H612.129V408.8H618.209V412H608.609V389.6ZM620.234 389.6H624.65L628.074 403.008H628.138V389.6H631.274V412H627.658L623.434 395.648H623.37V412H620.234V389.6ZM636.642 392.8H632.962V389.6H643.842V392.8H640.162V412H636.642V392.8Z" fill="white"/>
<line x1="140.5" y1="377" x2="140.5" y2="422" stroke="white"/>
<line x1="253.5" y1="377" x2="253.5" y2="422" stroke="white"/>
<line x1="394.5" y1="377" x2="394.5" y2="422" stroke="white"/>
<line x1="546.5" y1="377" x2="546.5" y2="422" stroke="white"/>
<defs>
<filter id="filter0_d_177_231" x="7.48486" y="254.05" width="610.284" height="103.4" filterUnits="userSpaceOnUse" color-interpolation-filters="sRGB">
<feFlood flood-opacity="0" result="BackgroundImageFix"/>
<feColorMatrix in="SourceAlpha" type="matrix" values="0 0 0 0 0 0 0 0 0 0 0 0 0 0 0 0 0 0 127 0" result="hardAlpha"/>
<feOffset dy="8"/>
<feGaussianBlur stdDeviation="4"/>
<feComposite in2="hardAlpha" operator="out"/>
<feColorMatrix type="matrix" values="0 0 0 0 0 0 0 0 0 0 0 0 0 0 0 0 0 0 0.25 0"/>
<feBlend mode="normal" in2="BackgroundImageFix" result="effect1_dropShadow_177_231"/>
<feBlend mode="normal" in="SourceGraphic" in2="effect1_dropShadow_177_231" result="shape"/>
</filter>
<linearGradient id="paint0_linear_177_231" x1="79.0924" y1="131.203" x2="545.032" y2="98.1058" gradientUnits="userSpaceOnUse">
<stop offset="0.212" stop-color="#FFFF25" stop-opacity="0"/>
<stop offset="0.2922" stop-color="#D0EA51" stop-opacity="0.1018"/>
<stop offset="0.3875" stop-color="#9FD57F" stop-opacity="0.2227"/>
<stop offset="0.4853" stop-color="#74C3A6" stop-opacity="0.3468"/>
<stop offset="0.5839" stop-color="#52B4C6" stop-opacity="0.472"/>
<stop offset="0.6837" stop-color="#37A8DF" stop-opacity="0.5986"/>
<stop offset="0.7851" stop-color="#24A0F1" stop-opacity="0.7273"/>
<stop offset="0.8892" stop-color="#199BFC" stop-opacity="0.8594"/>
<stop offset="1" stop-color="#1599FF"/>
</linearGradient>
<linearGradient id="paint1_linear_177_231" x1="101.821" y1="105.255" x2="568.967" y2="105.255" gradientUnits="userSpaceOnUse">
<stop offset="0.212" stop-color="#FFFF25" stop-opacity="0"/>
<stop offset="0.2922" stop-color="#D0EA51" stop-opacity="0.1018"/>
<stop offset="0.3875" stop-color="#9FD57F" stop-opacity="0.2227"/>
<stop offset="0.4853" stop-color="#74C3A6" stop-opacity="0.3468"/>
<stop offset="0.5839" stop-color="#52B4C6" stop-opacity="0.472"/>
<stop offset="0.6837" stop-color="#37A8DF" stop-opacity="0.5986"/>
<stop offset="0.7851" stop-color="#24A0F1" stop-opacity="0.7273"/>
<stop offset="0.8892" stop-color="#199BFC" stop-opacity="0.8594"/>
<stop offset="1" stop-color="#1599FF"/>
</linearGradient>
<linearGradient id="paint2_linear_177_231" x1="84.0001" y1="98.0185" x2="240.008" y2="98.0185" gradientUnits="userSpaceOnUse">
<stop stop-color="#FFFF25"/>
<stop offset="0.0611467" stop-color="#FFE816"/>
<stop offset="0.1314" stop-color="#FED50A"/>
<stop offset="0.2038" stop-color="#FECA02"/>
<stop offset="0.2809" stop-color="#FEC600"/>
<stop offset="0.6685" stop-color="#FB7B1E"/>
<stop offset="0.8876" stop-color="#F9441B"/>
<stop offset="1" stop-color="#F71818"/>
</linearGradient>
<linearGradient id="paint3_linear_177_231" x1="135.04" y1="78.0347" x2="189.201" y2="78.0347" gradientUnits="userSpaceOnUse">
<stop stop-color="#FFFF25"/>
<stop offset="0.0611467" stop-color="#FFE816"/>
<stop offset="0.1314" stop-color="#FED50A"/>
<stop offset="0.2038" stop-color="#FECA02"/>
<stop offset="0.2809" stop-color="#FEC600"/>
<stop offset="0.6685" stop-color="#FB7B1E"/>
<stop offset="0.8876" stop-color="#F9441B"/>
<stop offset="1" stop-color="#F71818"/>
</linearGradient>
<linearGradient id="paint4_linear_177_231" x1="135.04" y1="78.0346" x2="189.201" y2="78.0346" gradientUnits="userSpaceOnUse">
<stop stop-color="#FFFF25"/>
<stop offset="0.0611467" stop-color="#FFE816"/>
<stop offset="0.1314" stop-color="#FED50A"/>
<stop offset="0.2038" stop-color="#FECA02"/>
<stop offset="0.2809" stop-color="#FEC600"/>
<stop offset="0.6685" stop-color="#FB7B1E"/>
<stop offset="0.8876" stop-color="#F9441B"/>
<stop offset="1" stop-color="#F71818"/>
</linearGradient>
<linearGradient id="paint5_linear_177_231" x1="86.3005" y1="205.359" x2="237.708" y2="205.359" gradientUnits="userSpaceOnUse">
<stop stop-color="#FFFF25"/>
<stop offset="0.0611467" stop-color="#FFE816"/>
<stop offset="0.1314" stop-color="#FED50A"/>
<stop offset="0.2038" stop-color="#FECA02"/>
<stop offset="0.2809" stop-color="#FEC600"/>
<stop offset="0.6685" stop-color="#FB7B1E"/>
<stop offset="0.8876" stop-color="#F9441B"/>
<stop offset="1" stop-color="#F71818"/>
</linearGradient>
<clipPath id="clip0_177_231">
<rect width="485" height="228.06" fill="white" transform="translate(84)"/>
</clipPath>
</defs>
</svg>
